{"pages":[{"title":"关于我","text":"不定期更新 2018征程SDK编写⏰2018.08 开始了SDK编写，主要将平台数据进行规则性输出以及接收处理，为后期接入硬件做准备 wordpress业务代码平台，TensorFlow正式入手⏰2018.02 开始搭建数据中台，对媒体以及数据，用户数据等进行Python训练，采用wordpress编写业务代码，Python负责逻辑代码，TensorFlow框架 小程序商城Saas⏰2017.12 业余时间使用PHP的wordpress模板构建了一套商城Saas小程序，变卖，成为现在某知名品牌的服务 新公司⏰2017.11 进入一家传媒公司，开始做一些相关的数据类项目 毕业2017技术栈变更⏰2017.10 工作期间，开始接触了nodejs，python，并决心进行大规模应用，下勇气辞职 实习转正⏰2017.08 还是在校友企业，从实习中转正，因为学习的东西确实挺多的，而且公司前景也挺好的 大学第一份正儿八经的实习⏰2016.09 经师兄介绍进入了一家校友企业，开始了正儿八经的实习，期间协助了两个电商项目（基于B2B2C）以及两个广告系统项目（基于广点通） 社会实践深入存储运维⏰2016.07 刚上大三，初生牛犊不怕虎地投了广州的一家中型的游戏录屏公司，很庆幸能够得到赏识，学了一些关于游戏运维的脚本编写以及日常容器问题的解决，不过感觉没什么可以再提升的就做了一个月撤了 创业大赛项目“云课堂”⏰2015.10 同样也是一个参赛彩虹人生挑战杯等比赛均获奖，沦为佳话的项目，不过使用了腾讯云的redis，以及oss尝试做的一个项目，可以形容为视频网站，加入会员系统等权限 创业大赛项目“乖宅”⏰2015.10 使用爬虫框架 phpspider ，制作的第一个微站类作品，一招鲜吃遍天，参赛彩虹人生挑战杯等比赛均获奖，沦为校园佳话 第一个项目⏰2015.04 学校教学系统爬取教师时间表，导出相关excel表功能 PHP初认识⏰2014.12 因为一个项目所需，然后自学了一些，主要的开端教程：传智播客，兄弟连","link":"/about/index.html"}],"posts":[{"title":"单服务器媒体存储","text":"基本一个小网站，网站经营者会觉得没有什么必要弄几台服务器，所有文件一丢到同一个服务器就完事了，但是媒体（图片，视频，音频等），即使在小范围的访问量中，很多的时候也是成为了这个小网站服务器奔溃的主要原因。但也确实，小网站难不成要去搭设图床或者是存储？似乎也并不科学。所以，这里主要是用一些牢靠点的第三方平台来做存储 目前的一些方法：其实这一些说实在都是在为别人做嫁衣，很多时候，视频上传是一个漫长周期不说，视频内嵌带来的广告也是网站经营者烦恼的。图片上传平台一般有着水印，链接多变等的问题，虽然现在网站上有很多的途径，但是不稳定的事情时常发生。 另辟蹊径在这一点上，就是恰如其分地利用好网络资源，特别是网络上开放的云文档诸如：语雀、腾讯文档等，这里使用语雀为大家做一下简单的演示。 语雀方式 图床使用语雀的画板知识库这样子就可以获取到原图的链接地址 多媒体这个方式会有所限制，一般限制在200M以内，当然这个对于小站点而言还是够用的进入之后新建一个文件，选择上传附件上传完毕后，在预览中右键，选择复制链接地址，这个地址就是多媒体的地址了 仅供参考，不保证以后一直可行！","link":"/dbtn2a.html"},{"title":"【收藏帖】度盘解决限速","text":"RunningCheese_Firefox_V10_(x64).7zRunningCheese_Firefox_V10_(x86).7z 奔跑中的奶酪，这个工具实在好用！","link":"/dslq5s.html"},{"title":"wordpress后台添加用户邮箱必填项解除","text":"wordpress在4.0之后就已经取消了数据库的用户邮箱的必填项，现在看来邮箱确实没什么用，近期在项目中批量载入用户时，就在wordpress中的邮箱必填项中收到了阻碍。解除很多人多想着在form上面链接的user-editor.php或者是user-new.php中做限制，但是这样子有污染代码的嫌疑直接屏蔽即可在\\wp-admin\\includes\\user.php中有个/ checking email address /的模块，注释即可12345678/* checking email address */// if ( empty( $user-&gt;user_email ) ) {// $errors-&gt;add( 'empty_email', __( '&lt;strong&gt;ERROR&lt;/strong&gt;: Please enter an email address.' ), array( 'form-field' =&gt; 'email' ) );// } elseif ( !is_email( $user-&gt;user_email ) ) {// $errors-&gt;add( 'invalid_email', __( '&lt;strong&gt;ERROR&lt;/strong&gt;: The email address isn’t correct.' ), array( 'form-field' =&gt; 'email' ) );// } elseif ( ( $owner_id = email_exists($user-&gt;user_email) ) &amp;&amp; ( !$update || ( $owner_id != $user-&gt;ID ) ) ) {// $errors-&gt;add( 'email_exists', __('&lt;strong&gt;ERROR&lt;/strong&gt;: This email is already registered, please choose another one.'), array( 'form-field' =&gt; 'email' ) );// }","link":"/fycsxp.html"},{"title":"Blob视频地址下载","text":"浏览器找到该网页所使用的js视频服务，找到new的对象，找到类似URL的字段，幸运的话会是一个可以直接播放的视频文件，直接下载。遇到是M3U8的话，其实是个HLS，直接在网上下载一个下载器，复制粘贴地址就可以了。具体截图如下： 审查代码得知js播放器 搜索页面代码找不到页面代码的，可能被写在了某个加载过的js中，找一找是可以找到的。 M3U8下载","link":"/gqy7yx.html"},{"title":"【初创公司的一些事儿】——1.规则","text":"在毕业后基本没想过去大公司，对自己的slogan也是：做创业者的技术合伙人，而在工作的时间里，逐渐地也想到了一些事儿，所以想着把这些事儿不定期总结一下。 规则 大刀挥舞的历程在一个公司生存，主要的是规则，而在初创公司中，规则仿佛是一把刀，有时候，挥舞得过猛，很可能误伤。而迟迟举棋不定，却可能延长了成长周期。初创公司，往往带有自由的基因，而自由仿佛又跟规则相悖。当然，这与资本世界的历史道路一样，往往便是开始进行阶级划分，高层渴望通过这样的行动释放压力，当然这也是一种分而治之的手段，其实这个时候框架就出来了。但是规则其实更多的时候还是无法确立，虽然分组设立领头羊，但是领头羊的原理在初创公司似乎不管用，因为领头羊也需要一直在忙活着自己手头上的工作。而规则一直在悬浮着，那么如何去准确落地针对初创公司的规则，把这把刀架好，使得初创公司更好成长呢？ 化干戈为玉帛规则这把大刀，也是需要更好的去使用。如果将这把大刀掌握在少数人身上，那势必会有民心不满，初创企业中如果有这样的事情发生，或许灾难正在降临。所以规则其实不能够成为一把大刀，而应该化干戈为玉帛，将思想转化，制定团体认同的，适合当下公司发展的规则，这样子，共同的遵守才变成可能。 心态调节在这个事儿上，管理者，特别是高层管理者： 切勿架设隔阂，与初创团体分开，而是要切身融入团体中，遵守团体基本作息 弱化自身领导身份，将做事状态多在团队中进行，合理分配工作时勿做旁听 提出规则要求时，逐个听取建议，设立良好开放的沟通场合，而非闭门单聊 搭建奖励舞台，为员工搭建在团队中的荣誉感","link":"/keg8cc.html"},{"title":"1️⃣wx:key","text":"普通用法wx:key=&quot;字符串&quot; 解释 这个”字符串”代表在 for 循环的 array 中 item 的某个“属性”该“属性” 的值需要是列表中唯一的字符串或数字，且不能动态改变。用于被遍历的组件需要多个属性的时候。 123456789//test.jsdata: { input_data: [ { id: 1, unique: \"unique1\" }, { id: 2, unique: \"unique2\" }, { id: 3, unique: \"unique3\" }, { id: 4, unique: \"unique4\" }, ]} 12//test.wxml&lt;input value=\"id:{{item.id}}\" wx:for=\"{{input_data}}\" wx:key=\"unique\" /&gt; 特殊用法wx:key=&quot;*this&quot; 解释 保留关键字”*this”代表在 for 循环中的 item 本身，这种表示需要 item 本身是一个唯一的字符串或者数字用于组件仅需要一个属性，且属性值唯一。 12345//test.jsdata: { numberArray: [1, 2, 3, 4], stringArray:['aaa','ccc','fff','good']} 123//test.wxml&lt;input value=\"id:{{ item }}\" wx:for=\"{{numberArray}}\" wx:key=\"*this\" /&gt;&lt;input value=\"id:{{ item }}\" wx:for=\"{{stringArray}}\" wx:key=\"*this\" /&gt;","link":"/ma0pri.html"},{"title":"博客跑丢记","text":"博客，总是一种悲伤而又伤感的事情 还记得刚开始写博客那会儿，就是为了检验自己的技术，原生的PHP敲了3~4天的样子，写了一个博客系统。还是学生，腾讯云的福利就得用，搞起了云服务器，部署，上线，一个劲地用了有一个学期（半年）。但是噩耗总是很汹涌就把我的所有毁灭了。 安全那个时候，刚学会了技术攻防等的内容，也决定深入研究一阵子，但是事情就是这么调皮，没有规则的我，用着挂载着集数据库和代码于一身的博客云服务器，在里面玩起了攻防。果不其然，玩了个把星期吧，腾讯云封停了IP，而之前没有自身的安全意识，没有备份镜像，所以，一切都悔不当初。接下来的时间里，我工作了，接触了一个叫做wordpress的博客系统，这一个刷新了我对博客的观念，除了单纯的展示之外，还有很多强大的附属功能和插件，几乎是一个CMS，当然现今这个项目的发展确确实实是一个CMS无疑。是的，我用了，这一次，我花了钱，域名，服务器，还有解析。 维护这一次我历经的时间不长，但是由于毕业那会儿，太多的事情，而且家里也发生了变故，对于我一个几乎月光族来讲，服务器我只能是一个月一个月地供给，所以……是的，没了服务器还有镜像吧，但是，镜像还是需要服务器的。这个时候，对于写一个清澈的博客的我来讲，这样子实在是太烧钱了。 不知不觉，我也是离开了wordpress开发的生态，转向了nodejs开发，而这个时候我在开源项目中找到了Hexo，是的，静态，可以挂到github中，这一部分，实在是给予我强大的动力，免费，轻维护。是的，我又开始了博客的历程。 环境在发展上面，可能真的作为程序员的第六感，总觉得公司的发展模式不够长远，于是乎，我便是离开了毕业之后的第一家公司，有点沮丧，曾以为可以陪伴成长的企业，不过还是选择离开，格式化了这个公司的电脑。后知后觉，我才意识到，自己的博客的源码环境以及博客的数据都放到了电脑上，依赖都在本地环境上，卒。 思考随着存储的项目的接手，我也开始了解云存储的机制，而让我开心的是，云存储的机制恰恰可以解决我在上一次博客灾难中的本地环境的问题。而作为博客，核心其实不是环境，更多的是一篇篇文章，而好的时代说来就来，云文档的兴起，恰恰是一个新的整合时期。 周全对比了多个平台，我最终选择了 Github+Hexo+语雀+微云 ，通过语雀来编辑备份存储文章，微云备份存储本地环境，Github+Hexo老搭档来配合博客的展示。然后微云同步助手配置好打开即可。123yuque-hexo synchexo ghexo d 博客其实不在于更新多少，而在于真的坚持，以及经历了可以回味","link":"/nk9ukr.html"},{"title":"制作免费安全好运维不跑丢的博客","text":"制作一个免费不跑丢的博客，废话不说，基本就是Github+Hexo的那一套，多了使用语雀+微云 简要步骤 首先就是注册语雀，在里面新建知识库 下载微云同步助手，设置好用来Hexo的路径同步 开始Github+Hexo那套玩意 增加语雀的hexo插件：yuque-hexo 执行命令 123yuque-hexo synchexo ghexo d 详细步骤 语雀 注册语雀新建知识库 微云微云帐号（QQ或者微信，没有的自己注册）下载微云同步助手（不是微云客户端） Github+Hexo百度集合页（总有一款适合你） 语雀Hexo插件 安装 yuque-hexo 1npm i -g yuque-hexo 注册语雀，创建知识库，获得你的个人路径和知识库的名字，比如我的博客的知识库是https://www.yuque.com/5xjian/blog 在 Hexo 博客的目录下面的 package.json 中，进行下面的配置 12345678910{ &quot;name&quot;: &quot;your hexo project&quot;, //如果原来已经有这个不用再加了，直接加下面的就可以 &quot;yuqueConfig&quot;: { &quot;baseUrl&quot;: &quot;https://www.yuque.com/api/v2&quot;, &quot;login&quot;: &quot;5xjian&quot;, &quot;repo&quot;: &quot;blog&quot;, &quot;mdNameFormat&quot;: &quot;slug&quot;, &quot;postPath&quot;: &quot;source/_posts/yuque&quot; }} 同步文章 1yuque-hexo sync 小注意 更新标题后，yuque-hexo没法更新过来，执行 12yuque-hexo cleanyuque-hexo sync 标题禁用英文状态下的中括号：[ ] ，会报错 参考https://luan.ma/post/yuque2blog","link":"/nmcla6.html"},{"title":"【仅Demo】用语雀API做个单纯的博客小程序","text":"语雀API文档拥有完整的API文档，其实就是简单的调用即可，主要使用里面的： 获取单个用户信息 获取一个仓库的文档列表 获取单篇文档的详细信息 大致思路，使用API调用相对应需要的接口，然后使用WxParse解析大概模样代码：https://github.com/5xjian/yuque-mina 衍生内容：制作一个博客，无须服务器，轻运维。缺点：缺少标签，无法形成系统性的博客内容弥补缺点的方法：在文档里面设置相关的参数，类似TAG之类的。","link":"/no5min.html"},{"title":"2️⃣模板消息搜集：古人云","text":"古人云https://dev.guren.cloud/ SDKhttps://github.com/guren-cloud/vpush-sdk 简单无需编写复杂代码，在小程序端进行简单的SDK配置，就可以在控制台中推送模板消息给用户。 粗暴我们在微信官方允许的范围内，让开发者尽可能更多地收集到小程序用户们的推送凭证。 黑科技定时消息推送、推送给不同的分组用户、推送给指定用户。。 简单又强大的推送API让你能做更多。","link":"/pkuifo.html"},{"title":"批量删微博","text":"“有什么黑科技可以批量删除微博?” 不知道为什么要把过往的记录都删掉，可能害怕回首吧。看了一遍，都基本要付费删除，看来真是一笔生意啊……就不封装了，直接贴代码↓ 12345678910111213141516171819202122232425262728293031323334353637'use strict';var s = document.createElement('script');s.setAttribute('src','https://lib.sinaapp.com/js/jquery/2.0.3/jquery-2.0.3.min.js');s.onload = function() {setInterval(function() {if (!$('a[action-type=\"feed_list_delete\"]')) {$('a.next').click();} else {$('a[action-type=\"feed_list_delete\"]')[0].click();$('a[action-type=\"ok\"]')[0].click();}// scroll bottom let auto load$('html, body').animate({ scrollTop: $(document).height() }, 'slow');}, 800);};document.head.appendChild(s); 用法 进入个人中心类似下面的这个页面↓ 粘贴到console回车运行 出现错误或自动刷新，重复上述步骤⚠️ **注意：此举是直接按顺序去删除微博的，不想这样子搞的，可以在原有基础上做一些元素的判断**","link":"/okiiqt.html"},{"title":"理念与思维，到底是坚持还是调整？","text":"一趟事儿，总会被给予两个指标来形容：理念与思维而这种指标倒也没那么难去评判 理念 思维 陈旧 固化 坚持 灵活 模糊 紊乱 相信也不难理解，两个指标并没有从高到低排列，仿佛是天平一般，保持平衡才是最佳的但是，这种平衡所需的两端重量，在社会上并不能有合适的砝码来衡量有时候一遍文章你会看到：赞和踩有时候一个投票你会看到：对和错甚至这似乎就跟这个社会有关系，正如这些年一直听到的一句话：没有绝对是的，凡事没有绝对，早上你路过了卖油条的档口，难免闻一闻，有时候还想着上火，但是总是不由自主地光顾而又在结完账之后警告自己下次不要再吃这么热气的早餐了。或许，这一切归结与人自身才是最为合适的，我们是一个矛盾的生物 大的方面我们确实矛盾，所以，在合作中，共同筹谋一件事情也就多了这些各自心里砝码重量的衡量了。","link":"/qogomf.html"},{"title":"半自动拉取千聊音频与PPT","text":"1.获取千聊所有语信息： 课程界面可以获取的参数： INIT_STATE.thousandLive.totalSpeakList：获取所有语音链接地址 https://m.qlchat.com/api/wechat/topic/pptList：获取所有分页PPT转图片的地址 里面每一个content+.m4a 重新排列在一个数组中：0、1、2、3、…… 2.下载 根据重新排列的数组逐个下载 合并 输出 PHP解决 12345678910111213141516171819202122232425262728293031323334&lt;?php // $test：直接写入控制台JSON.stringify(__INIT_STATE__.thousandLive.totalSpeakList)的结果$test = &lt;&lt;&lt; stringstring;// 排序 start$test_arr = json_decode($test);$real = [];foreach ($test_arr as $key =&gt; $value) { // 转http下载 $real[$key] = str_replace('https', 'http', $value-&gt;content).'.m4a';}// 排序 end// downFile(\"远程文件地址\",\"保存目录\");function downFile($url,$flname,$path){ // echo $url; $arr=parse_url($url); $fileName = $flname; $file=file_get_contents($url); file_put_contents($path.$fileName,$file);}// 下载$console = '';$count = count($real);foreach ($real as $key =&gt; $value) { if ($key!=$count-1) { downFile($value,$key.'.m4a','D:\\\\phpStudy\\\\PHPTutorial\\\\test\\\\down\\\\'); $console .= $key.'.aac|'; }}echo $console;echo '下载完成！&lt;br/&gt;'; ?&gt; 然后下载了一大堆m4a文件，后面的思路用ffmpeg即可搞定具体的ffmepg命令（.bat处理）： 将所有的M4A转为AAC 12for %%a in (\"D:\\phpStudy\\PHPTutorial\\test\\down\\ffmpeg\\bin\\*.m4a\") do ffmpeg -i \"%%a\" -acodec copy \"D:\\phpStudy\\PHPTutorial\\test\\down\\ffmpeg\\bin\\tmp\\%%~na.aac\"pause 将所有的AAC合并为一个result.aac（concat后面的文件可以直接运行PHP得到） 1ffmpeg -i \"concat:1.aac|2.aac\" -c copy result.aac AAC转为MP3 1ffmpeg -i result.aac -b 1500 -ar 8000 -ac 2 -ab 32 -f mp3 result.mp3 同样的思路获取PPT 12345678910111213141516171819202122232425262728293031&lt;?php /** $test：直接写入控制台Network抓取到的 https://m.qlchat.com/api/wechat/topic/pptList 返回包中[-&gt;data-&gt;file的json数据]的结果**/$test = &lt;&lt;&lt; stringstring;$test_arr = json_decode($test);$real = [];foreach ($test_arr as $key =&gt; $value) { $real[$key] = str_replace('https', 'http', $value-&gt;url);}function downFile($url,$flname,$path){ // echo $url; $arr=parse_url($url); $fileName = $flname; $file=file_get_contents($url); file_put_contents($path.$fileName,$file);}$console = '';$count = count($real);foreach ($real as $key =&gt; $value) { downFile($value,$key.'.jpg','D:\\\\phpStudy\\\\PHPTutorial\\\\test\\\\down\\\\'); $console .= $key.'|';}echo $console;echo '下载完成！&lt;br/&gt;';echo \"正在合成……\"; ?&gt; 然后图片按照顺序合成PPT的话，很多软件都可以实现，这边给出两种方式： 万彩办公大师OfficeBox，里面有个图片转PDF功能，很迅速 一个在线合成的，不过不是很稳定好像：http://www.pdfdo.com/image-to-pdf.aspx","link":"/xezr90.html"},{"title":"关于我","text":"不定期更新 2018征程 SDK编写⏰2018.08 开始了SDK编写，主要将平台数据进行规则性输出以及接收处理，为后期接入硬件做准备 wordpress业务代码平台，TensorFlow正式入手⏰2018.02 开始搭建数据中台，对媒体以及数据，用户数据等进行Python训练，采用wordpress编写业务代码，Python负责逻辑代码，TensorFlow框架 小程序商城Saas⏰2017.12 业余时间使用PHP的wordpress模板构建了一套商城Saas小程序，变卖，成为现在某知名品牌的服务 新公司⏰2017.11 进入一家传媒公司，开始做一些相关的数据类项目 毕业2017 技术栈变更⏰2017.10 工作期间，开始接触了nodejs，python，并决心进行大规模应用，下勇气辞职 实习转正⏰2017.08 还是在校友企业，从实习中转正，因为学习的东西确实挺多的，而且公司前景也挺好的 大学 第一份正儿八经的实习⏰2016.09 经师兄介绍进入了一家校友企业，开始了正儿八经的实习，期间协助了两个电商项目（基于B2B2C）以及两个广告系统项目（基于广点通） 社会实践深入存储运维⏰2016.07 刚上大三，初生牛犊不怕虎地投了广州的一家中型的游戏录屏公司，很庆幸能够得到赏识，学了一些关于游戏运维的脚本编写以及日常容器问题的解决，不过感觉没什么可以再提升的就做了一个月撤了 创业大赛项目“云课堂”⏰2015.10 同样也是一个参赛彩虹人生挑战杯等比赛均获奖，沦为佳话的项目，不过使用了腾讯云的redis，以及oss尝试做的一个项目，可以形容为视频网站，加入会员系统等权限 创业大赛项目“乖宅”⏰2015.10 使用爬虫框架 phpspider ，制作的第一个微站类作品，一招鲜吃遍天，参赛彩虹人生挑战杯等比赛均获奖，沦为校园佳话 第一个项目⏰2015.04 学校教学系统爬取教师时间表，导出相关excel表功能 PHP初认识⏰2014.12 因为一个项目所需，然后自学了一些，主要的开端教程：传智播客，兄弟连","link":"/zwd89s.html"},{"title":"【转】今日头条Api分析（部分可用）","text":"今日头条Api分析 获取新闻标题 普通用法http://toutiao.com/api/article/recent/?source=2&amp;category=类型&amp;as=A1D5D87595C3287例如获取热点新闻http://toutiao.com/api/article/recent/?source=2&amp;category=news_hot&amp;as=A1D5D87595C3287其中 category 指类型 as 值随机生成 感兴趣的自己去抓取得到的信息为123456789101112131415161718192021222324252627282930313233343536373839404142434445464748495051525354555657585960616263646566676869707172737475767778798081828384858687888990919293949596{ \"has_more\": true, \"message\": \"success\", \"data\": [ { \"media_name\": \"侠客岛\", \"abstract\": \"今天又有大新闻啦。据美国多家媒体的消息， 12月15日，中国海军在南海趁美国一艘无人水下潜航器（UUV）故障之机，抢在美军打捞人员之前将其捞走。\", \"impression_count\": 7433280, \"image_list\": [ { \"url\": \"http://p1.pstatp.com/list/134b00048dd993d77429\" }, { \"url\": \"http://p3.pstatp.com/list/1349000017bb1b3c7366\" }, { \"url\": \"http://p3.pstatp.com/list/134c0003788b24d74346\" } ], \"media_avatar_url\": \"http://p3.pstatp.com/large/1731/4112623237\", \"external_visit_count\": 14999, \"article_type\": 0, \"more_mode\": true, \"tag\": \"news_military\", \"is_favorite\": 0, \"has_m3u8_video\": 0, \"keywords\": \"南海诸岛,南海,美国,专属经济区,公约,国际法\", \"has_mp4_video\": 0, \"favorite_count\": 1059, \"display_url\": \"http://toutiao.com/group/6365056560833659137/\", \"article_sub_type\": 0, \"bury_count\": 9, \"title\": \"美国想在南海下黑手，结果被中国抓个正着！这下送礼了\", \"datetime\": \"2016-12-17 22:27\", \"has_video\": false, \"share_url\": \"http://toutiao.com/group/6365056560833659137/?iid=41507200127&amp;app=news_article\", \"id\": 6365056560833659000, \"source\": \"侠客岛\", \"comment_count\": 17, \"article_url\": \"http://toutiao.com/group/6365056560833659137/\", \"create_time\": 1481980801, \"recommend\": 0, \"tips\": 0, \"aggr_type\": 1, \"item_source_url\": \"/item/6365059050404577794/\", \"media_url\": \"http://toutiao.com/m3741758306/\", \"display_time\": 1481980795, \"publish_time\": 1481980795, \"go_detail_count\": 504591, \"group_flags\": 2, \"middle_mode\": false, \"display_title\": \" \", \"gallary_image_count\": 3, \"item_seo_url\": \"/item/6365059050404577794/\", \"tag_id\": 6365056560833659000, \"source_url\": \"/group/6365056560833659137/\", \"article_genre\": \"article\", \"large_mode\": false, \"item_id\": 6365059050404578000, \"natant_level\": 0, \"is_digg\": 0, \"seo_url\": \"/group/6365056560833659137/\", \"repin_count\": 1059, \"url\": \"http://toutiao.com/group/6365056560833659137/\", \"level\": 0, \"digg_count\": 55, \"behot_time\": 1481984828, \"hot\": 0, \"preload_web\": 2, \"comments_count\": 17, \"has_image\": true, \"is_bury\": 0, \"group_id\": 6365056560833659000, \"middle_image\": { \"url\": \"http://p1.pstatp.com/list/134b00048dd993d77429\", \"width\": 415, \"url_list\": [ { \"url\": \"http://p1.pstatp.com/list/134b00048dd993d77429\" }, { \"url\": \"http://pb3.pstatp.com/list/134b00048dd993d77429\" }, { \"url\": \"http://pb3.pstatp.com/list/134b00048dd993d77429\" } ], \"uri\": \"list/134b00048dd993d77429\", \"height\": 536 } } ], \"next\": { \"max_behot_time\": 1481984828 }} 我们要获取的新闻都在 data 数组里, 这里我只罗列了部分以下给出部分类型 仅供参考 ‘推荐’: ‘all‘,‘热点’: ‘news_hot’,‘社会’: ‘news_society’,‘娱乐’: ‘news_entertainment’,‘科技’: ‘news_tech’,‘军事’: ‘news_military’,‘体育’: ‘news_sports’‘汽车’: ‘news_car’,‘财经’: ‘news_finance’,‘国际’: ‘news_world’,‘时尚’: ‘news_fashion’,‘旅游’: ‘news_travel’,‘探索’: ‘news_discovery’,‘育儿’: ‘news_baby’,‘养生’: ‘news_regimen’,‘故事’: ‘news_story’,‘美文’: ‘news_essay’,‘游戏’: ‘news_game’,‘历史’: ‘news_history’,‘美食’: ‘news_food’, 高级用法http://toutiao.com/api/article/recent/?source=2&amp;category=news_hot&amp;as=A105177907376A5&amp;cp=5797C7865AD54E1&amp;count=20&amp;offset=0&amp;_=1481986412 category 指类型 as 随机生成 cp 随机生成 count 获取文章数量 offset 偏移量 _= 指 max_behot_time 补充一个Api, 从手机版获取到的http://m.toutiao.com/list/?tag=all∾=wap&amp;count=20&amp;format=json_raw&amp;as=A17538D54D106FF&amp;cp=585DF0A65F0F1E1&amp;min_behot_time=1482491618 获取新闻 获取新闻内容http://m.toutiao.com/item_seo_url值/info/例如获取 美国无人潜航器被中国抓获引爆网络 这篇新闻的内容http://m.toutiao.com/i6364969235889783298/info/其中 i6364969235889783298 值为 item_seo_url 可从上面的Api获取得到的信息为1234567891011121314151617181920{ \"_ck\": {}, \"data\": { \"detail_source\": \"诤闻军事\", \"media_user\": { \"avatar_url\": \"http://p2.pstatp.com/large/11543/4356023632\", \"id\": 5866716857, \"screen_name\": \"诤闻军事\" }, \"publish_time\": 1481959884, \"title\": \"美国无人潜航器被中国抓获引爆网络，一中国网友外媒舌战群儒\", \"url\": \"http://toutiao.com/group/6364965628189327618/\", \"is_original\": true, \"is_pgc_article\": true, \"content\": \"&lt;div&gt;&lt;p&gt;据外媒报道，12月15日中国海军一艘南救510打捞救生船，在靠近菲律宾的海域持续跟踪美军海洋测量船鲍迪奇号之后，当着美军的面，将其放出的两艘水下无人航行器之一打捞带走。目前美方已经向中国提起抗议，要求归还无人航行器。&lt;strong&gt;据CNN报道，当时美军鲍迪奇号立刻使用无线电呼叫中国舰艇，但是却没有应答，过了很久之后中国军舰突然回应：有什么事要帮忙吗？我们正在附近巡逻。&lt;/strong&gt;&lt;/p&gt;&lt;p&gt;&lt;img src=\\\"http://p3.pstatp.com/large/12db0007c12ad2732220\\\" img_width=\\\"938\\\" img_height=\\\"732\\\" alt=\\\"美国无人潜航器被中国抓获引爆网络，一中国网友外媒舌战群儒\\\" onerror=\\\"javascript:errorimg.call(this);\\\"&gt;&lt;/p&gt;&lt;p class=\\\"pgc-img-caption\\\"&gt;鲍迪奇号&lt;/p&gt;&lt;p&gt;类似《华尔街日报》、CNN等媒体，对这一事件都冠以“Breaking News”（重大新闻）的标题，迅速进行了报道，因此也引发了国外网友的讨论。特别有趣的是，在《华尔街日报》网站上，一位网友“&lt;strong&gt;adam w”却独自在外媒网站和拥护美国的外国网友进行了一场激烈的辩论&lt;/strong&gt;。从名字和用语来开，这位网友很可能来自中国。&lt;/p&gt;&lt;p&gt;例如网名“Bryan Jaeck”用户认为，如果中国不归还无人航行器，过一段时间中国就能山寨所有的美国技术来建造自己的无人航行器。美国舰长应该把手放到扳机上发出警告：要么归还要么就去死！“adam w”则回答说：一名间谍被抓获了，现在暴徒说了：如果不交出间谍他们就开战！&lt;/p&gt;&lt;p&gt;网名“Christopher Holland”表示，中国的法律认为：我的是我的，你的也是我的。这就是中国人的想法。偷窃美国政府财产对于中国人来说小菜一碟。&lt;strong&gt;“adam w”则回答说：美国拥有世界上最庞大的间谍网络，不断从中国、俄罗斯窃取机密，甚至连德国、法国这样的盟友都不放过&lt;/strong&gt;。&lt;/p&gt;&lt;p&gt;&lt;img src=\\\"http://p3.pstatp.com/large/134d0000fb0668a5844f\\\" img_width=\\\"634\\\" img_height=\\\"439\\\" alt=\\\"美国无人潜航器被中国抓获引爆网络，一中国网友外媒舌战群儒\\\" onerror=\\\"javascript:errorimg.call(this);\\\"&gt;&lt;/p&gt;&lt;p class=\\\"pgc-img-caption\\\"&gt;无人潜航器&lt;/p&gt;&lt;p&gt;网名“Timothy corrigan”称：下次中国如果还要这么干，美国就应该把他们都赶出这片水域。应该让附近的潜艇发射战斧导弹到中国的岛礁上去“参观”。中国已经看穿了奥巴马是一个弱者，特朗普应该给中国一个教训。“adam w”回答说：&lt;strong&gt;美国人当着中国舰艇的面释放间谍无人器。中国抓获了它，美国却要以此为借口发动战争。美国暴徒终于显露了自己的本色&lt;/strong&gt;。&lt;/p&gt;&lt;p&gt;“Timothy corrigan”回应说：国际海域意味着你不能碰其他人的东西。中国的所作所为是盗窃，应该被严厉惩罚。&lt;strong&gt;美国应该击沉中国舰艇，派遣两个航母编队到南海，如果不够就派三个&lt;/strong&gt;。“adam w”则回答；&lt;strong&gt;真的吗？美国就没有在国际海域抓获其他人的舰艇吗（应该是意指银河号事件）？&lt;/strong&gt;在你谴责其他人搞间谍的时候，其他国家的所有计算机又在被谁监控？美国CIA一直在干这事，你这个伪君子。&lt;/p&gt;&lt;p&gt;网名“michael de martine”认为。为什么美国海军会派遣一艘小型没有武装的测量船到“敌军海域”？这不是成心让中国这个坏人来来搞事吗？“adam w”回应说：派没有武装的测量船到“敌军海域”，还来到中国舰艇的旁边。这件事美国才是事实上的挑衅者。&lt;/p&gt;&lt;p&gt;&lt;img src=\\\"http://p1.pstatp.com/large/134c0002f256279ce44d\\\" img_width=\\\"634\\\" img_height=\\\"444\\\" alt=\\\"美国无人潜航器被中国抓获引爆网络，一中国网友外媒舌战群儒\\\" onerror=\\\"javascript:errorimg.call(this);\\\"&gt;&lt;/p&gt;&lt;p class=\\\"pgc-img-caption\\\"&gt;特朗普的某些举动激怒了中国&lt;br&gt;&lt;/p&gt;&lt;p&gt;网友“WILLIAM A TAYLOR”说，这并不是“敌军海域”而是国际公海。而中国声称对这片国际海域拥有主权。美国有义务保持这一海域的航行自由，但中国去想把其他人排除在外。权利如果没有武力维护就没有任何意义，这就是为什么那么多人要带枪。“adam w”则问道：义务？到底是什么义务？菲律宾已经告诉美国离开他们的海域，不想当美国人对抗中国的马前卒。所以现在是美国打算单枪匹马挑衅中国。到底谁才是恶人？&lt;/p&gt;&lt;p&gt;除了那些为美国鼓噪的人之外，其实还是有清醒者。一位Gioklie Tanthe说到：&lt;strong&gt;美国必须懂得尊重其他国家，才能够得到其他国家的尊重。&lt;/strong&gt;&lt;/p&gt;&lt;/div&gt;&lt;p class=\\\"footnote\\\"&gt;本文为头条号作者原创，未经授权，不得转载。&lt;/p&gt;\", \"source\": \"诤闻军事\", \"video_play_count\": 6 }, \"success\": true} 获取新闻评论http://www.toutiao.com/api/comment/list/?group_id=头条号&amp;item_id=文章号&amp;offset=偏移量&amp;count=数量例如获取 美国无人潜航器被中国抓获引爆网络 这篇新闻的评论http://www.toutiao.com/api/comment/list/?group_id=6364965628189327618&amp;item_id=6364969235889783298&amp;offset=0&amp;count=10其中 group_id 和 item_id 可从上面的Api获取得到的信息为1234567891011121314151617181920212223242526{ \"message\": \"success\", \"data\": { \"has_more\": true, \"total\": 2410, \"comments\": [ { \"text\": \"中国是一个负责任的大国，只要美方提供证据证明这东西是美国的，中国可以归还。流程是:美方提供生产厂家原始记录、生产编号，该型号潜航器的设计图纸，以及该次海洋调查任务的详细说明、行动计划等等。中方需要半年左右的调查就可以了。\", \"digg_count\": 4351, \"reply_data\": { \"reply_list\": [] }, \"reply_count\": 176, \"create_time\": 1481964505, \"user\": { \"avatar_url\": \"http://p0.pstatp.com/origin/3793/3131589739\", \"user_id\": 6180186929, \"name\": \"hanxinping1969\" }, \"dongtai_id\": 7105200091, \"user_digg\": 0, \"id\": 52960355361 } ] }} 获取头条号文章http://www.toutiao.com/pgc/ma/?media_id=头条号&amp;page_type=1&amp;count=10&amp;version=2&amp;platform=pc&amp;as=A1C548D5FDB17E6&amp;cp=585DB1871ED64E1&amp;max_behot_time=偏移量例如获取 国际在线 的文章http://www.toutiao.com/pgc/ma/?media_id=3232597584&amp;page_type=1&amp;max_behot_time=0&amp;count=10&amp;version=2&amp;platform=pc&amp;as=A1C548D5FDB17E6&amp;cp=585DB1871ED64E1其中 media_id 可从上面的Api获取得到的信息为1234567891011121314151617181920212223242526272829303132333435{ \"media_id\": 3232597584, \"has_more\": 1, \"next\": { \"max_behot_time\": 1482474718 }, \"page_type\": 1, \"message\": \"success\", \"data\": [ { \"play_effective_count\": \"0\", \"gallery_pic_count\": 0, \"go_detail_count\": \"62\", \"title\": \"【老外谈】巴基斯坦专家：中央经济工作会议为2017年中国发展奠定基础\", \"image_list\": [ { \"url\": \"http://p2.pstatp.com/list/13c5000a0fe801679b19\", \"pc_url\": \"http://p2.pstatp.com/list/194x108/13c5000a0fe801679b19\" } ], \"abstract\": \"莎菲·哈里（巴基斯坦）一年一度的中央经济工作会议日前在北京召开。与会的领导人们总结中国在2016年的经济工作，并着眼于2017年的经济战略。\", \"show_play_effective_count\": 0, \"middle_mode\": true, \"has_video\": false, \"source_url\": \"http://www.toutiao.com/item/6367207970920464898/\", \"datetime\": \"2016-12-23 16:06\", \"live_status\": \"\", \"more_mode\": false, \"comments_count\": \"0\", \"video_duration_str\": \"00:00\", \"has_gallery\": false, \"pc_image_url\": \"http://p2.pstatp.com/list/126x82/13c5000a0fe801679b19\" } ]} 获取段子 获取段子内容http://www.toutiao.com/api/article/feed/?category=essay_joke&amp;as=A115C8457F69B85&amp;cp=585F294B8845EE1得到的信息为123456789101112131415161718192021222324252627282930313233343536373839404142434445464748495051525354555657585960616263646566676869707172737475767778798081{ \"has_more\": true, \"message\": \"success\", \"data\": [ { \"group\": { \"text\": \"地铁上，一个怂孩子在那一直打他妈妈的手。然后他妈妈把手放在了小孩儿的脸上，怂孩子又使劲要打过去，结果他妈妈突然把手给撤开了。就听啪的一声然后就没有然后了。\", \"create_time\": 1483004786, \"id\": 53368972910, \"favorite_count\": 78, \"go_detail_count\": 43711, \"user_favorite\": 0, \"share_type\": 1, \"is_can_share\": 1, \"comment_count\": 81, \"share_url\": \"http://m.neihanshequ.com/share/group/53368972910/?iid=0&amp;app=joke_essay\", \"label\": 1, \"content\": \"地铁上，一个怂孩子在那一直打他妈妈的手。然后他妈妈把手放在了小孩儿的脸上，怂孩子又使劲要打过去，结果他妈妈突然把手给撤开了。就听啪的一声然后就没有然后了。\", \"category_type\": 1, \"id_str\": \"53368972910\", \"media_type\": 0, \"share_count\": 119, \"type\": 3, \"status\": 112, \"has_comments\": 1, \"user_bury\": 0, \"status_desc\": \"热门投稿\", \"user\": { \"is_following\": false, \"avatar_url\": \"http://p3.pstatp.com/thumb/1353000081efff334e3e\", \"user_id\": 6088312852, \"name\": \"蓝筱蝶\", \"user_verified\": false }, \"user_digg\": 0, \"online_time\": 1483004786, \"category_name\": \"内涵段子\", \"category_visible\": false, \"bury_count\": 248, \"is_anonymous\": false, \"repin_count\": 78, \"digg_count\": 7537, \"has_hot_comments\": 1, \"user_repin\": 0, \"activity\": {}, \"group_id\": 53368972910, \"category_id\": 1 }, \"comments\": [ { \"status\": 5, \"user_profile_url\": \"\", \"is_digg\": 0, \"user_id\": 3126306787, \"description\": \"\", \"bury_count\": 0, \"avatar_url\": \"http://p3.pstatp.com/thumb/1354000a27104141c471\", \"text\": \"这个故事，告诉了我们，不要坐地铁\", \"comment_id\": 53372167364, \"user_verified\": false, \"digg_count\": 11343, \"user_profile_image_url\": \"http://p3.pstatp.com/thumb/1354000a27104141c471\", \"platform_id\": \"feifei\", \"platform\": \"feifei\", \"create_time\": 1483011406, \"user_digg\": 0, \"group_id\": 53368972910, \"user_name\": \"哈哈1个大开心\", \"id\": 53372167364, \"user_bury\": 0 } ], \"type\": 1, \"display_time\": 1483101547, \"online_time\": 1483101547 } ], \"next\": { \"max_behot_time\": 1483101547 }} 获取段子评论http://www.toutiao.com/group/段子ID/comments/?count=总数&amp;offset=偏移量&amp;item_id=0&amp;format=json例如http://www.toutiao.com/group/53404620593/comments/?count=20&amp;offset=0&amp;item_id=0&amp;format=json其中 段子ID 可从上面的Api获取得到的信息为123456789101112131415161718192021222324252627282930313233343536373839404142434445464748495051525354555657{ \"message\": \"success\", \"data\": { \"comment_pagination\": { \"count\": 1, \"total_count\": 75, \"url_fmt\": \"?offset=%s&amp;count=%s\", \"offset\": 0 }, \"group\": { \"status\": 1, \"type\": 3, \"id\": 53404620593, \"_id\": 892139876 }, \"comments\": [ { \"status\": 1, \"user_uid\": null, \"description\": \"这个用户很懒，神马都木有写\", \"reply_to_user_name\": null, \"reply_to_user_verified\": null, \"text\": \"抽烟害人害己\", \"target_id\": null, \"forum_id\": 0, \"reply_count\": 1, \"reply_to_user_id\": null, \"is_blocked\": 0, \"user_verified\": false, \"user_followers_count\": 0, \"is_blocking\": 0, \"user_id\": 5874570453, \"bury_count\": 0, \"type\": 2, \"digg_count\": 405, \"id\": 53409568162, \"platform_id\": 0, \"rate_score\": 0, \"create_time\": 1483093293, \"user_name\": \"今天回家吃晚饭\", \"user_profile_image_url\": \"http://p9.pstatp.com/thumb/bc3000463d913c1744c\" } ], \"page_display_range\": [ 1, 2, 3, 4, 5, 6, 7 ], \"page\": 1, \"page_size\": 1, \"page_last\": 75 }} 内容来源：https://github.com/iMeiji/Toutiao/wiki/今日头条Api分析","link":"/mv2ole.html"}],"tags":[{"name":"小技巧","slug":"小技巧","link":"/tags/小技巧/"},{"name":"鼓捣一下","slug":"鼓捣一下","link":"/tags/鼓捣一下/"},{"name":"好用的工具","slug":"好用的工具","link":"/tags/好用的工具/"},{"name":"wordpress","slug":"wordpress","link":"/tags/wordpress/"},{"name":"身边事儿","slug":"身边事儿","link":"/tags/身边事儿/"},{"name":"初创公司的一些事儿","slug":"初创公司的一些事儿","link":"/tags/初创公司的一些事儿/"},{"name":"小程序","slug":"小程序","link":"/tags/小程序/"},{"name":"博客搭建","slug":"博客搭建","link":"/tags/博客搭建/"},{"name":"Hexo","slug":"Hexo","link":"/tags/Hexo/"},{"name":"语雀","slug":"语雀","link":"/tags/语雀/"},{"name":"关于我","slug":"关于我","link":"/tags/关于我/"}],"categories":[]}